<svg width="117" height="127" viewBox="0 0 117 127" fill="none" xmlns="http://www.w3.org/2000/svg">
<path d="M51.9391 1.79901C51.4891 1.34793 50.9546 0.990043 50.3661 0.745856C49.7777 0.501668 49.1468 0.375977 48.5097 0.375977C47.8726 0.375977 47.2417 0.501668 46.6532 0.745856C46.0648 0.990043 45.5303 1.34793 45.0803 1.79901C33.0387 13.8212 19.7281 19.7499 4.90625 19.7499C3.62161 19.7499 2.38958 20.2603 1.4812 21.1686C0.572823 22.077 0.0625 23.3091 0.0625 24.5937V53.6659C0.0625 81.9824 13.1794 102.065 38.8125 113.254V77.8749C38.8114 73.5787 40.2383 69.404 42.8687 66.0073C45.4992 62.6105 49.184 60.1843 53.3438 59.1103V58.4999C53.3422 53.3977 54.6839 48.3849 57.234 43.9656C59.7842 39.5463 63.4528 35.8762 67.8711 33.3244C72.2894 30.7725 77.3017 29.4289 82.404 29.4285C87.5063 29.4281 92.5188 30.771 96.9375 33.3221V24.5937C96.9375 23.3091 96.4272 22.077 95.5188 21.1686C94.6104 20.2603 93.3784 19.7499 92.0938 19.7499C77.2622 19.7499 63.9516 13.8406 51.9391 1.79901ZM63.0312 68.1874V58.4999C63.0312 53.3614 65.0725 48.4333 68.7061 44.7998C72.3396 41.1662 77.2677 39.1249 82.4062 39.1249C87.5448 39.1249 92.4729 41.1662 96.1064 44.7998C99.74 48.4333 101.781 53.3614 101.781 58.4999V68.1874H106.625C109.194 68.1874 111.658 69.2081 113.475 71.0248C115.292 72.8416 116.312 75.3057 116.312 77.8749V116.625C116.312 119.194 115.292 121.658 113.475 123.475C111.658 125.292 109.194 126.312 106.625 126.312H58.1875C55.6182 126.312 53.1542 125.292 51.3374 123.475C49.5206 121.658 48.5 119.194 48.5 116.625V77.8749C48.5 75.3057 49.5206 72.8416 51.3374 71.0248C53.1542 69.2081 55.6182 68.1874 58.1875 68.1874H63.0312ZM72.7188 58.4999V68.1874H92.0938V58.4999C92.0938 55.9307 91.0731 53.4666 89.2563 51.6499C87.4396 49.8331 84.9755 48.8124 82.4062 48.8124C79.837 48.8124 77.3729 49.8331 75.5562 51.6499C73.7394 53.4666 72.7188 55.9307 72.7188 58.4999ZM89.6719 97.2499C89.6719 95.323 88.9064 93.475 87.5438 92.1124C86.1813 90.7498 84.3332 89.9843 82.4062 89.9843C80.4793 89.9843 78.6312 90.7498 77.2687 92.1124C75.9061 93.475 75.1406 95.323 75.1406 97.2499C75.1406 99.1769 75.9061 101.025 77.2687 102.388C78.6312 103.75 80.4793 104.516 82.4062 104.516C84.3332 104.516 86.1813 103.75 87.5438 102.388C88.9064 101.025 89.6719 99.1769 89.6719 97.2499Z" fill="#2469B3"/>
</svg>
