<svg width="43" height="41" viewBox="0 0 43 41" fill="none" xmlns="http://www.w3.org/2000/svg">
<rect width="43" height="41" fill="#F6F6F6"/>
<g clip-path="url(#clip0_0_1)">
<rect width="375" height="7259" transform="translate(-54 -3018)" fill="white"/>
<rect x="-29" y="-21" width="330" height="318" rx="10" fill="#F7F7F7"/>
<path d="M0 10C0 4.47715 4.47715 0 10 0H33C38.5228 0 43 4.47715 43 10V31C43 36.5228 38.5228 41 33 41H0V10Z" fill="#FF9696"/>
<path d="M21 11C18.243 11 16 13.243 16 16V19H15C13.897 19 13 19.897 13 21V29C13 30.103 13.897 31 15 31H27C28.103 31 29 30.103 29 29V21C29 19.897 28.103 19 27 19H26V16C26 13.243 23.757 11 21 11ZM27 21L27.002 29H15V21H27ZM18 19V16C18 14.346 19.346 13 21 13C22.654 13 24 14.346 24 16V19H18Z" fill="#D20000"/>
</g>
<defs>
<clipPath id="clip0_0_1">
<rect width="375" height="7259" fill="white" transform="translate(-54 -3018)"/>
</clipPath>
</defs>
</svg>
